…
**Question 1: Here we present how many breweries are in each state with
two plots. One is a dot plot that ranks states in order from fewest to
the most breweries. The second is a map of the U.S. with the number of
breweries labeled on each state to make it easier to see regions with
more breweries.**

    #1. How many breweries are in each state?
    breweries$count = 1

    breweries_summary = breweries %>%
      group_by(State) %>%
      summarize(Total_Breweries = sum(count))
    breweries_summary

    # A tibble: 51 × 2
       State Total_Breweries
       <fct>           <dbl>
     1 " AK"               7
     2 " AL"               3
     3 " AR"               2
     4 " AZ"              11
     5 " CA"              39
     6 " CO"              47
     7 " CT"               8
     8 " DC"               1
     9 " DE"               2
    10 " FL"              15
    # ℹ 41 more rows
…
